2022-04-13 14:54:44[config.js] warn: "DEFAULT ENV:preproduction"
2022-04-13 14:54:48[config.js] info: "MongoDB connection succeeded."
2022-04-13 14:56:04[config.js] warn: "DEFAULT ENV:preproduction"
2022-04-13 14:56:27[config.js] warn: "DEFAULT ENV:preproduction"
2022-04-13 14:57:06[config.js] warn: "DEFAULT ENV:preproduction"
2022-04-13 14:57:26[config.js] warn: "DEFAULT ENV:preproduction"
2022-04-13 14:57:27[config.js] warn: "DEFAULT ENV:preproduction"
2022-04-13 14:58:01[config.js] warn: "DEFAULT ENV:preproduction"
2022-04-13 14:58:04[config.js] info: "MongoDB connection succeeded."
2022-04-13 14:58:05[config.js] warn: "DEFAULT ENV:preproduction"
2022-04-13 14:58:08[config.js] warn: "DEFAULT ENV:preproduction"
2022-04-13 14:58:11[config.js] warn: "DEFAULT ENV:preproduction"
2022-04-13 14:58:15[config.js] warn: "DEFAULT ENV:preproduction"
2022-04-13 14:58:19[config.js] warn: "DEFAULT ENV:preproduction"
2022-04-13 14:58:21[config.js] warn: "DEFAULT ENV:preproduction"
2022-04-13 14:58:24[config.js] info: "MongoDB connection succeeded."
2022-04-13 14:58:28[config.js] warn: "DEFAULT ENV:preproduction"
2022-04-13 14:58:31[config.js] info: "MongoDB connection succeeded."
2022-04-13 14:58:51[config.js] warn: "DEFAULT ENV:preproduction"
2022-04-13 14:58:54[config.js] info: "MongoDB connection succeeded."
2022-04-13 14:58:58[config.js] warn: "DEFAULT ENV:preproduction"
2022-04-13 14:59:03[config.js] info: "MongoDB connection succeeded."
2022-04-13 14:59:05[config.js] warn: "DEFAULT ENV:preproduction"
2022-04-13 14:59:09[config.js] info: "MongoDB connection succeeded."
2022-04-13 14:59:09[config.js] warn: "DEFAULT ENV:preproduction"
2022-04-13 14:59:13[config.js] info: "MongoDB connection succeeded."
2022-04-13 14:59:15[config.js] warn: "DEFAULT ENV:preproduction"
2022-04-13 14:59:16[config.js] warn: "ENV ENTER:undefined"
2022-04-13 14:59:16[config.js] info: "Server started at port : 3009"
2022-04-13 14:59:24[config.js] info: "MongoDB connection succeeded."
2022-04-13 14:59:31[config.js] warn: "DEFAULT ENV:preproduction"
2022-04-13 14:59:32[config.js] warn: "ENV ENTER:undefined"
2022-04-13 14:59:32[config.js] info: "Server started at port : 3009"
2022-04-13 14:59:34[config.js] warn: "DEFAULT ENV:preproduction"
2022-04-13 14:59:35[config.js] warn: "ENV ENTER:undefined"
2022-04-13 14:59:35[config.js] info: "Server started at port : 3009"
2022-04-13 14:59:36[config.js] warn: "DEFAULT ENV:preproduction"
2022-04-13 14:59:37[config.js] warn: "ENV ENTER:undefined"
2022-04-13 14:59:37[config.js] info: "Server started at port : 3000"
2022-04-13 14:59:40[config.js] info: "MongoDB connection succeeded."
